<?xml version="1.0" encoding="UTF-8" standalone="no"?>
<svg width="500px" height="500px" viewBox="0 0 500 500" version="1.1" xmlns="http://www.w3.org/2000/svg" xmlns:xlink="http://www.w3.org/1999/xlink" xmlns:sketch="http://www.bohemiancoding.com/sketch/ns">
    <!-- Generator: Sketch 3.0.4 (8054) - http://www.bohemiancoding.com/sketch -->
    <title>logout</title>
    <desc>Created with Sketch.</desc>
    <defs></defs>
    <g id="Page-1" stroke="none" stroke-width="1" fill="none" fill-rule="evenodd" sketch:type="MSPage">
        <g id="logout" sketch:type="MSLayerGroup" fill="#000000">
            <rect id="Rectangle-15" sketch:type="MSShapeGroup" x="229.166667" y="83.3333333" width="41.6666667" height="187.5" rx="833.333333"></rect>
            <path d="M500,250 C500,111.928813 388.071187,0 250,0 C111.928813,0 0,111.928813 0,250 C0,388.071187 111.928813,500 250,500 C388.071187,500 500,388.071187 500,250 Z M41.6666667,250 C41.6666667,134.940677 134.940677,41.6666667 250,41.6666667 C365.059323,41.6666667 458.333333,134.940677 458.333333,250 C458.333333,365.059323 365.059323,458.333333 250,458.333333 C134.940677,458.333333 41.6666667,365.059323 41.6666667,250 Z" id="Oval-8" sketch:type="MSShapeGroup"></path>
            <path d="M354.166667,249.082454 C354.166667,306.612115 307.529661,353.24912 250,353.24912 C192.470339,353.24912 145.833333,306.612115 145.833333,249.082454 C145.833333,211.166548 166.24596,176.839916 198.627229,158.439963 C208.630938,152.755572 212.132437,140.037856 206.448047,130.034147 C200.763657,120.030438 188.04594,116.528939 178.042231,122.213329 C132.758021,147.945099 104.166667,196.025383 104.166667,249.082454 C104.166667,329.62398 169.458474,394.915787 250,394.915787 C330.541526,394.915787 395.833333,329.62398 395.833333,249.082454 C395.833333,197.173936 368.470475,149.979837 324.741563,123.836142 C314.865988,117.931947 302.073958,121.151387 296.169764,131.026961 C290.26557,140.902535 293.485009,153.694565 303.360583,159.598759 C334.633491,178.295528 354.166667,211.98538 354.166667,249.082454 Z" id="Oval-7" sketch:type="MSShapeGroup"></path>
        </g>
    </g>
</svg>