<?xml version="1.0" encoding="UTF-8" standalone="no"?>
<svg width="519px" height="519px" viewBox="0 0 519 519" version="1.1" xmlns="http://www.w3.org/2000/svg" xmlns:xlink="http://www.w3.org/1999/xlink" xmlns:sketch="http://www.bohemiancoding.com/sketch/ns">
    <!-- Generator: Sketch 3.0.4 (8054) - http://www.bohemiancoding.com/sketch -->
    <title>settings</title>
    <desc>Created with Sketch.</desc>
    <defs></defs>
    <g id="Page-1" stroke="none" stroke-width="1" fill="none" fill-rule="evenodd" sketch:type="MSPage">
        <g id="settings" sketch:type="MSLayerGroup" fill="#000000">
            <path d="M348.086957,261.130435 C348.086957,213.105674 309.155196,174.173913 261.130435,174.173913 C213.105674,174.173913 174.173913,213.105674 174.173913,261.130435 C174.173913,309.155196 213.105674,348.086957 261.130435,348.086957 C309.155196,348.086957 348.086957,309.155196 348.086957,261.130435 Z M217.652174,261.130435 C217.652174,237.118054 237.118054,217.652174 261.130435,217.652174 C285.142815,217.652174 304.608696,237.118054 304.608696,261.130435 C304.608696,285.142815 285.142815,304.608696 261.130435,304.608696 C237.118054,304.608696 217.652174,285.142815 217.652174,261.130435 Z" id="Oval-8" sketch:type="MSShapeGroup"></path>
            <path d="M445.613316,224.560692 L435.870037,243.994124 L457.517648,242.001457 C456.42987,230.184227 454.562461,219.13539 451.705564,208.444347 C448.774527,197.503284 444.77503,186.791788 439.686324,175.848599 L419.974204,185.014958 L438.128787,196.973256 L461.64962,161.264923 L443.495037,149.306624 L458.853791,164.691632 C479.567104,144.013666 479.567104,110.447418 458.866924,89.7472377 L429.40859,60.2889043 C408.710599,39.5909125 375.154476,39.5909125 354.456484,60.2889043 L369.828371,75.6607909 L357.862524,57.5111816 L322.091691,81.0945149 L334.057537,99.2441242 L343.220028,79.5302066 C322.668618,69.9784715 300.358405,64.0712616 277.262842,62.0079016 L275.328371,83.6607909 L294.764019,73.9219324 L275.472352,35.4219324 L256.036704,45.1607909 L277.037448,39.5430919 C269.473013,11.2648296 240.414285,-5.51032895 212.130255,2.0815143 L171.914362,12.8487894 C143.628322,20.4411677 126.87506,49.4728788 134.430043,77.7511107 L155.432537,72.1399576 L133.731321,73.4233063 L136.272987,116.402473 L157.974204,115.119124 L145.476585,97.3315075 C126.563359,110.619982 110.233002,126.832089 97.2205546,145.311166 L114.995037,157.827458 L116.242715,136.124161 L73.1177147,133.644994 L71.8700372,155.348291 L77.484585,134.346704 C49.3251553,126.818584 20.4189785,143.674136 12.8692932,171.897259 L2.08085864,212.13519 C-5.47034607,240.363979 11.1245112,269.407714 39.2724506,276.968257 L44.9117039,255.973291 L35.1392635,275.392076 L73.6392635,294.767076 L83.4117039,275.348291 L61.7575139,277.268147 C62.8159777,289.206634 64.7065638,300.451863 67.6192393,311.340788 C70.4872528,322.028647 74.3797009,332.49321 79.3219586,343.193198 L99.0575372,334.077458 L80.8824316,322.150374 L57.2990983,358.087874 L75.4742039,370.014958 L60.1023174,354.643071 C39.4767037,375.268685 39.6190434,408.751356 60.3029501,429.399966 L89.742718,458.860576 C110.436363,479.518931 143.908762,479.672172 164.505158,459.040265 L149.120037,443.681624 L161.048511,461.855817 L196.694345,438.459984 L184.765871,420.285791 L175.571493,439.984857 C196.367395,449.691174 218.853367,455.698471 242.057111,457.752726 L243.974204,436.098291 L224.553525,445.866967 L243.741025,484.0128 L263.161704,474.244124 L242.166738,479.883377 C249.727281,508.031317 278.771016,524.626174 306.987736,517.078202 L347.249805,506.283303 C375.470905,498.734162 392.34686,469.811775 384.78167,441.646538 L363.786704,447.285791 L385.490377,446.044672 L383.052877,403.419672 L361.349204,404.660791 L373.84055,422.452813 C392.973968,409.019706 409.473215,392.520459 422.622077,373.652662 L404.786704,361.223291 L403.50198,382.924426 L445.731146,385.424426 L447.015871,363.723291 L441.398172,384.724035 C469.662858,392.284839 498.726445,375.502256 506.287448,347.236823 L517.075883,306.998892 C524.639783,278.722644 507.879946,249.690459 479.609819,242.102348 L468.338589,284.094234 C473.430444,285.460962 476.437109,290.669249 475.077627,295.751425 L464.289192,335.989357 C462.931853,341.063509 457.708038,344.079967 452.63357,342.722547 L450.502617,342.152517 L448.300595,342.022156 L406.071428,339.522156 L393.914333,338.802446 L386.951331,348.793919 C376.725193,363.46779 363.84944,376.343543 348.857857,386.868769 L338.954717,393.821523 L339.645531,405.90191 L342.083031,448.52691 L342.210871,450.762477 L342.791738,452.925044 C344.099658,457.794437 341.109607,462.918852 336.002338,464.285047 L295.74027,475.079946 C290.633274,476.446063 285.470474,473.49617 284.15667,468.604871 L283.580486,466.459734 L282.582383,464.475449 L263.394883,426.329615 L257.953446,415.511733 L245.891297,414.443856 C227.708889,412.834146 210.14999,408.143154 193.960249,400.586725 L182.973593,395.458793 L172.837397,402.111598 L137.191563,425.507431 L135.318123,426.737047 L133.734916,428.322984 C130.178498,431.885534 124.234405,431.858321 120.478791,428.109116 L91.0390232,398.648506 C87.2881493,394.90401 87.262923,388.970012 90.8460905,385.386844 L92.4245663,383.808368 L93.6493095,381.942041 L117.232643,346.004541 L123.852928,335.91621 L118.793116,324.961717 C114.840918,316.405208 111.803237,308.238625 109.616352,300.08906 C107.390307,291.76705 105.912438,282.976669 105.065894,273.428435 L103.996883,261.370982 L93.1841443,255.929506 L54.6841443,236.554506 L52.6981502,235.555061 L50.5509572,234.978324 C45.6596586,233.66452 42.709765,228.501721 44.0791146,223.382657 L54.8675492,183.144725 C56.2351025,178.03239 61.3633833,175.042026 66.2554895,176.349878 L68.4030473,176.924004 L70.6223598,177.051588 L113.74736,179.530754 L125.8119,180.22432 L132.76952,170.343749 C142.870906,155.998693 155.620868,143.341055 170.471823,132.906741 L180.39108,125.937449 L179.675421,113.835775 L177.133754,70.8566088 L177.003693,68.6573006 L176.435031,66.5288044 C175.071043,61.4234085 178.078705,56.211434 183.172319,54.8442341 L223.388213,44.0769591 C228.480829,42.7100316 233.680618,45.7117901 235.03596,50.7784899 L235.608499,52.9188246 L236.601056,54.8996493 L255.892722,93.3996493 L261.322222,104.235195 L273.393899,105.31368 C291.529572,106.933923 308.946078,111.545397 324.895046,118.958042 L335.895667,124.07083 L346.023383,117.393734 L381.794217,93.8104002 L383.638356,92.5945787 L385.200257,91.0326774 C388.918932,87.3140026 394.946143,87.3140026 398.664817,91.0326774 L428.123151,120.491011 C431.839637,124.207497 431.839637,130.224583 428.136283,133.921616 L426.56318,135.492035 L425.340454,137.348325 L401.819621,173.056659 L395.148458,183.184537 L400.262084,194.181316 C404.337881,202.946257 407.464696,211.320527 409.704692,219.682037 C411.886995,227.848642 413.349128,236.499593 414.222426,245.986791 L415.329551,258.014195 L426.126758,263.427557 L464.230925,282.531723 L483.717483,243.664858 L445.613316,224.560692 Z" id="Imported-Layers" sketch:type="MSShapeGroup"></path>
        </g>
    </g>
</svg>