<?xml version="1.0" encoding="UTF-8" standalone="no"?>
<svg width="44px" height="44px" viewBox="0 0 44 44" version="1.1" xmlns="http://www.w3.org/2000/svg" xmlns:xlink="http://www.w3.org/1999/xlink" xmlns:sketch="http://www.bohemiancoding.com/sketch/ns">
    <!-- Generator: Sketch 3.3.1 (12002) - http://www.bohemiancoding.com/sketch -->
    <title>Plus</title>
    <desc>Created with Sketch.</desc>
    <defs></defs>
    <g id="Page-1" stroke="none" stroke-width="1" fill="none" fill-rule="evenodd" sketch:type="MSPage">
        <g id="iPhone-6" sketch:type="MSArtboardGroup" transform="translate(-185.000000, -55.000000)" fill="#000000">
            <path d="M185,71.8333333 L201.844444,71.8333333 L201.844444,55 L211.383333,55 L211.383333,71.8333333 L228.222222,71.8333333 L228.222222,81.4111111 L211.383333,81.4111111 L211.383333,98.25 L201.844444,98.25 L201.844444,81.4111111 L185,81.4111111 L185,71.8333333" id="Plus" sketch:type="MSShapeGroup"></path>
        </g>
    </g>
</svg>