<svg xmlns="http://www.w3.org/2000/svg" xmlns:xlink="http://www.w3.org/1999/xlink" version="1.1" id="&#1057;&#1083;&#1086;&#1081;_1" x="0px" y="0px" viewBox="5.0 -10.0 100.0 135.0" enable-background="new 0 0 100 100" xml:space="preserve" height="100px" width="100px">
<path d="M52.3,6.1C39.2,5.4,27,10.3,18.1,19.7c-8.4,8.8-12.7,20.4-12,32.6c1.1,22.2,19.4,40.5,41.7,41.7c0.8,0,1.5,0.1,2.3,0.1  c12.2,0,23.5-4.9,31.9-13.7c8.4-8.8,12.7-20.4,12-32.6C92.8,25.5,74.5,7.2,52.3,6.1z M79.7,78.2C71.4,87,60,91.6,47.9,90.9  c-20.7-1-37.8-18.1-38.8-38.8C8.5,40.8,12.5,30,20.3,21.8C28.1,13.5,38.7,9,50,9c0.7,0,1.4,0,2.1,0.1c20.7,1,37.8,18.1,38.8,38.8  C91.5,59.2,87.5,70,79.7,78.2z"/>
<path d="M50,66c-2.2,0-4,1.8-4,4s1.8,4,4,4s4-1.8,4-4S52.2,66,50,66z"/>
<path d="M50.3,28.5c-3.1-0.1-6.1,1.1-8.3,3.3c-2.2,2.2-3.5,5.1-3.5,8.2c0,0.8,0.7,1.5,1.5,1.5s1.5-0.7,1.5-1.5  c0-2.3,0.9-4.5,2.6-6.1c1.7-1.6,3.9-2.5,6.2-2.4c4.4,0.1,8.1,3.8,8.3,8.3c0.1,2.8-1.2,5.4-3.4,7c-4.2,3.1-6.6,7.7-6.6,12.6V60  c0,0.8,0.7,1.5,1.5,1.5s1.5-0.7,1.5-1.5v-0.6c0-3.9,2-7.6,5.4-10.2c3-2.2,4.7-5.8,4.6-9.5C61.3,33.7,56.3,28.7,50.3,28.5z"/>
</svg>