<?xml version="1.0" encoding="utf-8"?>
<!-- Generator: Adobe Illustrator 16.0.0, SVG Export Plug-In . SVG Version: 6.00 Build 0)  -->
<!DOCTYPE svg PUBLIC "-//W3C//DTD SVG 1.1//EN" "http://www.w3.org/Graphics/SVG/1.1/DTD/svg11.dtd">
<svg version="1.1" id="Layer_1" xmlns="http://www.w3.org/2000/svg" xmlns:xlink="http://www.w3.org/1999/xlink" x="0px" y="0px"
	 width="50px" height="50px" viewBox="0 0 50 50" enable-background="new 0 0 50 50" xml:space="preserve">
<g>
	<path d="M43.293,35.076c-0.043-2.113-0.7-4.095-1.458-6.04c-1.639-4.208-3.861-8.11-6.263-11.918
		c-0.092-0.146-0.235-0.301-0.238-0.454c-0.02-1.229-0.011-2.458-0.011-3.692c0.138-0.026,0.222-0.039,0.305-0.059
		c2.589-0.609,4.14-3.089,3.55-5.674c-0.565-2.476-3.114-4.044-5.641-3.471c-2.041,0.463-3.571,2.369-3.611,4.497
		c-0.039,2.155,1.436,4.079,3.582,4.61c0.372,0.092,0.462,0.23,0.453,0.585c-0.024,0.921,0.011,1.844-0.018,2.765
		c-0.009,0.276-0.1,0.579-0.24,0.819c-1.029,1.771-2.126,3.504-3.115,5.296c-1.771,3.21-3.375,6.499-4.26,10.085
		c-0.139,0.56-0.235,1.128-0.377,1.82c-0.068-0.184-0.097-0.239-0.11-0.298c-0.268-1.111-0.456-2.248-0.812-3.329
		c-1.477-4.48-3.754-8.575-6.246-12.552c-0.595-0.949-1.012-1.863-0.863-3c0.059-0.444,0.041-0.906-0.003-1.354
		c-0.053-0.532,0.112-0.761,0.665-0.912c2.464-0.676,3.872-3.26,3.185-5.734c-0.684-2.458-3.256-3.922-5.711-3.249
		c-2.174,0.594-3.527,2.467-3.465,4.792c0.057,2.098,1.66,3.889,3.979,4.367c0,1.094,0.02,2.17-0.013,3.243
		c-0.01,0.309-0.11,0.651-0.273,0.913c-2.001,3.195-3.884,6.456-5.409,9.909c-1.096,2.481-2.129,4.997-2.268,7.747
		c-0.149,2.945,0.408,5.743,2.147,8.205c2.647,3.747,7.724,4.545,11.309,1.768c2.007-1.555,3.036-3.703,3.558-6.129
		c0.121-0.562,0.191-1.134,0.285-1.701c0.103,0.114,0.129,0.225,0.141,0.337c0.206,1.89,0.746,3.666,1.767,5.283
		c3.146,4.987,9.946,5.186,13.354,0.376C42.831,40.578,43.35,37.894,43.293,35.076z M22.749,36.521
		c-0.946,2.602-3.118,4.055-5.859,3.955c-2.396-0.087-4.485-1.81-5.247-4.303c-0.563-1.845-0.45-3.658,0.142-5.475
		c0.886-2.717,3.747-8.327,5.525-10.729c0.944,1.638,1.876,3.181,2.738,4.762c1.179,2.165,2.255,4.379,2.902,6.775
		C23.408,33.201,23.348,34.876,22.749,36.521z M40.02,36.75c-0.968,2.407-3.003,3.756-5.548,3.727
		c-2.381-0.028-4.404-1.487-5.305-3.855c-0.622-1.637-0.742-3.326-0.271-5.012c1.173-4.196,3.42-7.869,5.726-11.663
		c2.314,3.847,4.63,7.562,5.761,11.852C40.827,33.479,40.666,35.146,40.02,36.75z"/>
</g>
</svg>
