<?xml version="1.0" encoding="utf-8"?>
<!-- Generator: Adobe Illustrator 16.0.0, SVG Export Plug-In . SVG Version: 6.00 Build 0)  -->
<!DOCTYPE svg PUBLIC "-//W3C//DTD SVG 1.1//EN" "http://www.w3.org/Graphics/SVG/1.1/DTD/svg11.dtd">
<svg version="1.1" id="Layer_1" xmlns="http://www.w3.org/2000/svg" xmlns:xlink="http://www.w3.org/1999/xlink" x="0px" y="0px"
	 width="50px" height="50px" viewBox="0 0 50 50" enable-background="new 0 0 50 50" xml:space="preserve">
<g>
	<g>
		<g>
			<path d="M40.726,41.873c-2.415-5.844-5.591-14.458-7.548-19.238c-0.452-1.106-0.366-2.884,0.162-3.954l2.206-4.522
				c0.526-1.07,0.179-2.371-0.993-2.604c-0.473-0.097-1.367-0.126-1.367-0.126V5.058c0-1.036-0.849-1.879-1.884-1.879
				c-1.041,0-1.886,0.843-1.886,1.879v6.623c-0.975,0.287-1.962,0.747-2.687,1.21c-0.534,0.338-1.13,0.555-1.724,0.555
				c-0.597,0-1.203-0.216-1.738-0.555c-0.72-0.463-1.711-0.923-2.688-1.21V5.058c0-1.036-0.843-1.879-1.88-1.879
				c-1.043,0-1.884,0.843-1.884,1.879v6.371c0,0-0.895,0.029-1.372,0.126c-1.17,0.233-1.524,1.534-0.996,2.604l2.21,4.522
				c0.522,1.07,0.614,2.848,0.162,3.954c-1.958,4.78-5.133,13.395-7.545,19.238c-0.461,1.104,0.126,2.34,1.27,2.682
				c2.92,0.859,8.525,2.267,14.107,2.267h0.691c5.582,0,11.188-1.407,14.105-2.267C40.597,44.213,41.183,42.977,40.726,41.873
				L40.726,41.873z M40.726,41.873"/>
		</g>
	</g>
</g>
</svg>
