<?xml version="1.0" encoding="utf-8"?>
<!-- Generator: Adobe Illustrator 16.0.0, SVG Export Plug-In . SVG Version: 6.00 Build 0)  -->
<!DOCTYPE svg PUBLIC "-//W3C//DTD SVG 1.1//EN" "http://www.w3.org/Graphics/SVG/1.1/DTD/svg11.dtd">
<svg version="1.1" id="Layer_1" xmlns="http://www.w3.org/2000/svg" xmlns:xlink="http://www.w3.org/1999/xlink" x="0px" y="0px"
	 width="50px" height="50px" viewBox="0 0 50 50" enable-background="new 0 0 50 50" xml:space="preserve">
<g>
	<path fill="#010101" d="M44.96,21.762c0.741-0.08,1.298-0.503,1.64-0.843l0.814-2.758c0.285-0.968-0.268-1.984-1.234-2.271
		c-0.664-0.196-1.352,0.004-1.812,0.461c-0.208,0.209-0.368,0.471-0.459,0.773l-1.151,3.901
		C43.519,21.591,44.256,21.838,44.96,21.762z"/>
	<path fill="#010101" d="M46.255,22.085c-0.146,0.081-0.303,0.154-0.469,0.218c0.166-0.062,0.323-0.132,0.467-0.213L46.255,22.085z"
		/>
	<path fill="#010101" d="M45.441,22.414c0.053-0.015,0.104-0.03,0.154-0.045C45.545,22.385,45.494,22.399,45.441,22.414z"/>
	<path fill="#010101" d="M45.038,22.488c-0.2,0.022-0.399,0.021-0.602,0.004C44.639,22.51,44.838,22.51,45.038,22.488z"/>
	<path fill="#010101" d="M43.219,22.146c0.133,0.062,0.264,0.108,0.395,0.153C43.482,22.254,43.352,22.207,43.219,22.146z"/>
	<path fill="#010101" d="M43.83,22.377c0.142,0.039,0.283,0.061,0.422,0.082C44.111,22.438,43.972,22.416,43.83,22.377z"/>
	<path fill="#010101" d="M43.613,22.299c0.072,0.024,0.145,0.058,0.217,0.078C43.758,22.356,43.686,22.323,43.613,22.299z"/>
	<path fill="#010101" d="M42.991,22.021c0.076,0.042,0.151,0.088,0.228,0.124C43.143,22.109,43.067,22.063,42.991,22.021z"/>
	<path fill="#010101" d="M44.437,22.492c-0.061-0.006-0.124-0.024-0.185-0.033C44.313,22.468,44.376,22.486,44.437,22.492z"/>
	<path fill="#010101" d="M45.596,22.369c0.064-0.021,0.129-0.043,0.19-0.066C45.725,22.326,45.662,22.349,45.596,22.369z"/>
	<path fill="#010101" d="M45.038,22.488c0.141-0.015,0.272-0.043,0.403-0.074C45.31,22.445,45.178,22.474,45.038,22.488z"/>
	<path fill="#010101" d="M46.7,21.861h-0.089c-0.11,0.08-0.23,0.156-0.358,0.229c-0.144,0.081-0.301,0.151-0.467,0.213
		c-0.061,0.024-0.126,0.046-0.19,0.066c-0.051,0.016-0.103,0.031-0.154,0.045c-0.129,0.032-0.263,0.06-0.403,0.075
		c-0.2,0.021-0.399,0.021-0.602,0.004c-0.061-0.006-0.124-0.024-0.185-0.033c-0.141-0.021-0.281-0.043-0.423-0.083
		c-0.072-0.02-0.144-0.053-0.216-0.078c-0.132-0.045-0.263-0.092-0.395-0.153c-0.076-0.035-0.151-0.082-0.229-0.124
		c-0.1-0.053-0.199-0.097-0.297-0.16h-0.185l-4.531,0.001l-1.239,3.653h4.692h3.811H46.7c1.009,0,1.826-0.818,1.826-1.827
		S47.709,21.861,46.7,21.861z"/>
	<path fill="#010101" d="M41.176,31.901c0.968,0.285,1.985-0.266,2.271-1.233l1.341-4.537c-0.877,0.262-2.255,0.473-3.811-0.005
		l-1.034,3.507C39.655,30.601,40.208,31.615,41.176,31.901z"/>
	<path fill="#010101" d="M27.406,30.106c0.11,0.876-0.603,1.978-1.594,2.469l-14.143,6.98c-0.991,0.488-1.887,0.179-1.999-0.696
		l-1.243-9.692c-0.11-0.874,0.602-1.979,1.594-2.47l14.144-6.978c0.991-0.49,1.886-0.178,1.996,0.696L27.406,30.106z"/>
	<path fill="#010101" d="M6.024,18.757c0.16,0.046,0.322,0.105,0.484,0.178c-0.161-0.072-0.323-0.135-0.48-0.18L6.024,18.757z"/>
	<path fill="#010101" d="M6.832,19.102c-0.048-0.029-0.094-0.055-0.141-0.079C6.737,19.047,6.784,19.073,6.832,19.102z"/>
	<path fill="#010101" d="M7.169,19.332c0.157,0.126,0.298,0.269,0.428,0.424C7.467,19.601,7.326,19.458,7.169,19.332z"/>
	<path fill="#010101" d="M8.213,20.861c-0.05-0.137-0.11-0.263-0.17-0.388C8.104,20.599,8.163,20.725,8.213,20.861z"/>
	<path fill="#010101" d="M7.944,20.265c-0.071-0.128-0.157-0.241-0.24-0.355C7.789,20.023,7.873,20.137,7.944,20.265z"/>
	<path fill="#010101" d="M8.043,20.474c-0.033-0.069-0.062-0.144-0.098-0.209C7.98,20.33,8.01,20.404,8.043,20.474z"/>
	<path fill="#010101" d="M8.287,21.108c-0.025-0.081-0.046-0.168-0.074-0.247C8.241,20.94,8.262,21.027,8.287,21.108z"/>
	<path fill="#010101" d="M7.597,19.756c0.039,0.047,0.07,0.104,0.107,0.153C7.668,19.858,7.636,19.803,7.597,19.756z"/>
	<path fill="#010101" d="M6.689,19.022c-0.06-0.031-0.121-0.061-0.181-0.088C6.568,18.962,6.63,18.991,6.689,19.022z"/>
	<path fill="#010101" d="M7.169,19.332c-0.11-0.088-0.223-0.163-0.337-0.23C6.946,19.169,7.059,19.244,7.169,19.332z"/>
	<path fill="#010101" d="M6.711,19.901c-0.58-0.467-1.272-0.562-1.757-0.562l-2.525,1.373c-0.887,0.482-1.214,1.591-0.731,2.478
		c0.331,0.611,0.959,0.956,1.606,0.956c0.294,0,0.595-0.071,0.871-0.222l3.574-1.943C7.609,21.042,7.263,20.345,6.711,19.901z"/>
	<path fill="#010101" d="M27.406,30.106c0.11,0.876-0.603,1.978-1.594,2.469l-14.143,6.98c-0.991,0.488-1.887,0.179-1.999-0.696
		l-1.243-9.692c-0.11-0.874,0.602-1.979,1.594-2.47l14.144-6.978c0.991-0.49,1.886-0.178,1.996,0.696L27.406,30.106z"/>
	<path fill="#010101" d="M37.193,16.425l-7.731-5.975c-0.697-0.539-1.549-0.126-1.905,0.921l-2.381,7.02
		c1.112,0.047,1.945,0.789,2.084,1.886l1.244,9.69c0.115,0.896-0.271,1.872-0.956,2.641l3.294,2.545
		c0.697,0.54,1.551,0.128,1.905-0.92l5.065-14.935C38.168,18.25,37.891,16.965,37.193,16.425z"/>
	<path fill="#010101" d="M11.861,19.743l-2.695-2.696l-1.031-1.03c-0.712-0.714-1.869-0.714-2.583,0s-0.714,1.87,0,2.584
		l0.062,0.062c0.135,0.021,0.273,0.053,0.414,0.093c0.159,0.045,0.32,0.106,0.48,0.18c0.062,0.027,0.121,0.057,0.183,0.088
		c0.047,0.024,0.093,0.05,0.141,0.078c0.114,0.067,0.227,0.144,0.337,0.231c0.157,0.125,0.298,0.267,0.428,0.422
		c0.039,0.047,0.07,0.104,0.107,0.154c0.083,0.115,0.169,0.229,0.24,0.356c0.036,0.064,0.064,0.139,0.099,0.208
		c0.06,0.125,0.12,0.251,0.17,0.388c0.028,0.08,0.049,0.164,0.074,0.248c0.032,0.107,0.07,0.209,0.097,0.323l0.131,0.13l3.205,3.205
		l3.459-1.707L11.861,19.743z"/>
	<path fill="#010101" d="M16.557,15.407c-0.482-0.886-1.592-1.215-2.479-0.732l-4.156,2.261c0.805,0.435,1.928,1.259,2.689,2.697
		l3.212-1.747C16.71,17.403,17.039,16.294,16.557,15.407z"/>
</g>
</svg>
