<?xml version="1.0" encoding="utf-8"?>
<!-- Generator: Adobe Illustrator 16.0.0, SVG Export Plug-In . SVG Version: 6.00 Build 0)  -->
<!DOCTYPE svg PUBLIC "-//W3C//DTD SVG 1.1//EN" "http://www.w3.org/Graphics/SVG/1.1/DTD/svg11.dtd">
<svg version="1.1" id="Layer_1" xmlns="http://www.w3.org/2000/svg" xmlns:xlink="http://www.w3.org/1999/xlink" x="0px" y="0px"
	 width="50px" height="50px" viewBox="0 0 50 50" enable-background="new 0 0 50 50" xml:space="preserve">
<g>
	<g>
		<g>
			<path d="M36.049,34.012c-3.554-0.763-5.954-0.295-8.409-2.502C25.158,29.28,10.82,10.736,8.838,8.592
				c-0.674-0.731-2.128,0.84-2.54,1.438c-2.799,4.093-3.229,7.646-1.725,11.742c0.666,1.791,0.971,15.344,1.108,19.521
				c0.008,0.172,0.146,0.306,0.316,0.306h0.62c0.086,0,0.167-0.037,0.226-0.1c0.058-0.059,0.095-0.139,0.09-0.227
				c-0.076-3.471-0.1-15.429,0.439-16.275c0.606-0.94,5.062-2.802,9.374,6.784c4.304,9.582,6.348,9.798,9.368,9.798
				c3.014,0,11.844,0.217,18.305-0.972C50.266,39.28,40.906,35.06,36.049,34.012L36.049,34.012z M26.331,35.548
				c-3.879-4.519-13.247-20.133-15.62-23.362c-0.038-0.057-0.08-0.117-0.119-0.179c1.27,1.429,2.402,3.04,3.548,4.406
				c2.859,3.399,5.613,6.893,8.308,10.418c1.599,2.092,2.981,4.429,4.953,6.199c2.165,1.943,5.001,1.185,7.548,1.95
				C33.021,36.506,29.139,38.832,26.331,35.548L26.331,35.548z M26.331,35.548"/>
		</g>
	</g>
</g>
</svg>
