<?xml version="1.0" encoding="utf-8"?>
<!-- Generator: Adobe Illustrator 16.0.0, SVG Export Plug-In . SVG Version: 6.00 Build 0)  -->
<!DOCTYPE svg PUBLIC "-//W3C//DTD SVG 1.1//EN" "http://www.w3.org/Graphics/SVG/1.1/DTD/svg11.dtd">
<svg version="1.1" id="Layer_1" xmlns="http://www.w3.org/2000/svg" xmlns:xlink="http://www.w3.org/1999/xlink" x="0px" y="0px"
	 width="50px" height="50px" viewBox="0 0 50 50" enable-background="new 0 0 50 50" xml:space="preserve">
<g>
	<g>
		<path fill="#010101" d="M34.531,6.475c-2.482-1.354-3.236-0.904-3.236-0.904s-1.339-1.958-2.092-2.033
			c-0.754-0.073-4.201,0-4.201,0s-3.45-0.073-4.201,0c-0.755,0.076-2.097,2.033-2.097,2.033s-0.753-0.451-3.236,0.904
			c-2.483,1.354-5.42,22.807-5.269,23.485c0.149,0.678,5.569,2.859,5.569,2.859l1.73-16.936l1.124,2.258l-1.135,25.869
			c0,0,4.303,2.408,7.514,2.484c3.212-0.076,7.514-2.484,7.514-2.484l-1.139-25.869l1.126-2.258l1.729,16.938
			c0,0,5.419-2.186,5.569-2.861C39.953,29.282,37.017,7.829,34.531,6.475z M25.001,16.487L20.81,5.224l4.192,0.421l4.194-0.421
			L25.001,16.487z"/>
	</g>
</g>
</svg>
