<?xml version="1.0" encoding="utf-8"?>
<!-- Generator: Adobe Illustrator 16.0.0, SVG Export Plug-In . SVG Version: 6.00 Build 0)  -->
<!DOCTYPE svg PUBLIC "-//W3C//DTD SVG 1.1//EN" "http://www.w3.org/Graphics/SVG/1.1/DTD/svg11.dtd">
<svg version="1.1" id="Layer_1" xmlns="http://www.w3.org/2000/svg" xmlns:xlink="http://www.w3.org/1999/xlink" x="0px" y="0px"
	 width="50px" height="50px" viewBox="0 0 50 50" enable-background="new 0 0 50 50" xml:space="preserve">
<g>
	<g>
		<path d="M28.206,34.965c-0.398-0.828-1.354-1.26-2.257-0.972c-0.721,0.236-1.208,0.865-1.281,1.575
			c-0.092-0.71-0.571-1.332-1.296-1.567c-0.9-0.286-1.855,0.145-2.251,0.977c-0.042,0.077-0.077,0.155-0.106,0.239
			c-0.314,0.987,0.235,2.04,1.215,2.354c0.195,0.062,0.382,0.091,0.571,0.091c0.794,0,1.538-0.514,1.783-1.303
			c0.036-0.096,0.046-0.187,0.065-0.277c0.004-0.031,0.015-0.056,0.019-0.084c0.004,0.028,0.011,0.053,0.015,0.079
			c0.014,0.096,0.027,0.187,0.059,0.279c0.321,0.984,1.379,1.522,2.361,1.207c0.979-0.322,1.521-1.381,1.208-2.36
			C28.282,35.115,28.242,35.041,28.206,34.965L28.206,34.965z M28.206,34.965"/>
		<path d="M28.316,4.334c-0.043,0.044-0.077,0.099-0.116,0.146c-0.599,0.738-0.559,1.82,0.13,2.5
			c0.362,0.366,0.84,0.551,1.322,0.551c0.433,0,0.855-0.162,1.209-0.459c0.036-0.036,0.079-0.062,0.115-0.1
			c0.735-0.735,0.729-1.918-0.007-2.654C30.235,3.589,29.045,3.597,28.316,4.334L28.316,4.334z M28.316,4.334"/>
		<path d="M18.265,4.397c-0.727,0.73-0.727,1.916,0.009,2.645c0.037,0.037,0.081,0.062,0.12,0.096
			c0.353,0.292,0.778,0.449,1.196,0.449c0.489,0,0.972-0.186,1.337-0.557c0.68-0.688,0.713-1.766,0.111-2.506
			c-0.041-0.047-0.075-0.1-0.119-0.146C20.184,3.653,18.991,3.663,18.265,4.397L18.265,4.397z M18.265,4.397"/>
		<path d="M33.908,14.032c-0.022,0.004-0.042,0.016-0.065,0.018c-0.982,0.182-1.661,1.102-1.516,2.104
			c0.136,0.939,0.93,1.604,1.854,1.604c0.064,0,0.132-0.004,0.198-0.012c0.025-0.002,0.046,0,0.071-0.002
			c1.018-0.15,1.73-1.104,1.59-2.123C35.889,14.597,34.938,13.884,33.908,14.032L33.908,14.032z M33.908,14.032"/>
		<path d="M33.564,31.597c0.486-0.914,0.158-2.045-0.757-2.545c-0.029-0.013-0.062-0.021-0.093-0.035
			c-0.893-0.426-1.971-0.089-2.445,0.788c-0.479,0.883-0.177,1.953,0.661,2.477c0.033,0.018,0.057,0.045,0.094,0.068
			c0.28,0.152,0.583,0.228,0.891,0.228C32.573,32.577,33.222,32.218,33.564,31.597L33.564,31.597z M33.564,31.597"/>
		<path d="M34.447,21.648c-0.022-0.001-0.043,0-0.066-0.001c-1.003-0.11-1.907,0.595-2.046,1.59c-0.146,1,0.531,1.934,1.519,2.104
			c0.026,0.004,0.048,0.014,0.07,0.02c0.087,0.014,0.179,0.021,0.263,0.021c0.921,0,1.726-0.68,1.855-1.616v0.008
			C36.191,22.741,35.476,21.792,34.447,21.648L34.447,21.648z M34.447,21.648"/>
		<path d="M35.161,27.758c0.307-0.989-0.249-2.038-1.237-2.347c-0.024-0.006-0.053-0.006-0.077-0.014
			c-0.973-0.255-1.97,0.288-2.265,1.252c-0.3,0.959,0.218,1.975,1.156,2.316c0.029,0.008,0.051,0.021,0.081,0.033
			c0.177,0.051,0.364,0.079,0.551,0.079C34.161,29.075,34.904,28.561,35.161,27.758L35.161,27.758z M35.161,27.758"/>
		<path d="M36.321,19.694v-0.031c0-1.031-0.838-1.873-1.874-1.869c-0.022,0-0.043,0.01-0.066,0.01
			c-1.003,0.035-1.808,0.857-1.808,1.867v0.082c0.019,1,0.812,1.807,1.812,1.838c0.022,0,0.043,0.009,0.062,0.009
			c1.036,0,1.874-0.843,1.874-1.874V19.694z M36.321,19.694"/>
		<path d="M31.016,35.082c0.726-0.736,0.726-1.92-0.01-2.655c-0.036-0.035-0.075-0.063-0.111-0.093
			c-0.738-0.633-1.843-0.601-2.533,0.093c-0.689,0.693-0.714,1.773-0.114,2.513c0.041,0.044,0.069,0.099,0.114,0.143
			c0.37,0.366,0.85,0.545,1.328,0.545C30.169,35.627,30.647,35.442,31.016,35.082L31.016,35.082z M31.016,35.082"/>
		<g>
			<path d="M19.64,35.647c0.479,0,0.958-0.184,1.323-0.554c0.044-0.043,0.077-0.093,0.116-0.14c0.603-0.739,0.564-1.821-0.124-2.51
				c-0.698-0.69-1.796-0.721-2.527-0.091c-0.037,0.033-0.08,0.06-0.117,0.098c-0.736,0.734-0.736,1.921,0,2.65
				C18.675,35.464,19.159,35.647,19.64,35.647L19.64,35.647z M19.64,35.647"/>
			<path d="M27.035,1.858c-0.988-0.308-2.038,0.242-2.344,1.23c-0.03,0.097-0.046,0.186-0.062,0.283
				c-0.004,0.025-0.014,0.053-0.018,0.081c0-0.028-0.01-0.056-0.014-0.081c-0.02-0.098-0.037-0.187-0.065-0.283
				c-0.322-0.98-1.38-1.511-2.369-1.188c-0.981,0.32-1.515,1.373-1.193,2.357c0.03,0.088,0.062,0.162,0.104,0.239
				c0.313,0.649,0.968,1.051,1.675,1.051c0.195,0,0.396-0.03,0.581-0.091c0.729-0.236,1.207-0.867,1.281-1.581
				c0.093,0.714,0.579,1.337,1.3,1.558c0.903,0.291,1.853-0.154,2.247-0.982c0.041-0.08,0.077-0.157,0.104-0.24
				C28.575,3.224,28.024,2.175,27.035,1.858L27.035,1.858z M27.035,1.858"/>
		</g>
		<path d="M14.855,21.628c0.021,0,0.043-0.008,0.066-0.008c1.001-0.037,1.808-0.863,1.808-1.873c0-1.014-0.807-1.826-1.812-1.86
			c-0.023,0-0.041-0.009-0.062-0.009c-1.043,0-1.874,0.844-1.874,1.875C12.981,20.792,13.82,21.628,14.855,21.628L14.855,21.628z
			 M14.855,21.628"/>
		<path d="M14.135,11.718c-0.3,0.989,0.256,2.039,1.242,2.342c0.027,0.008,0.053,0.014,0.074,0.021
			c0.157,0.039,0.317,0.065,0.476,0.065c0.803,0,1.545-0.517,1.792-1.321c0.297-0.971-0.222-1.984-1.163-2.314
			c-0.024-0.011-0.046-0.021-0.076-0.027C15.492,10.175,14.441,10.728,14.135,11.718L14.135,11.718z M14.135,11.718"/>
		<path d="M14.848,17.829c0.024,0,0.047,0,0.074,0.004c0.064,0.004,0.132,0.006,0.196,0.006c0.917,0,1.716-0.672,1.852-1.609
			c0.137-1.004-0.541-1.922-1.529-2.098c-0.022-0.004-0.043-0.012-0.069-0.014c-1.018-0.151-1.973,0.567-2.111,1.594v-0.005
			C13.108,16.734,13.826,17.684,14.848,17.829L14.848,17.829z M14.848,17.829"/>
		<path d="M15.118,25.405c0.088,0,0.18-0.008,0.267-0.016c0.027-0.002,0.045-0.012,0.07-0.016c0.989-0.182,1.67-1.107,1.523-2.107
			c-0.147-1.003-1.056-1.697-2.055-1.598c-0.021,0-0.043,0-0.068,0c-1.029,0.154-1.732,1.103-1.59,2.125
			C13.402,24.733,14.204,25.405,15.118,25.405L15.118,25.405z M15.118,25.405"/>
		<path d="M15.941,29.103c0.188,0,0.375-0.024,0.558-0.081c0.025-0.012,0.049-0.027,0.076-0.038
			c0.936-0.336,1.456-1.351,1.156-2.309c-0.296-0.963-1.299-1.5-2.267-1.248c-0.024,0.008-0.049,0.012-0.08,0.02
			c-0.987,0.307-1.537,1.342-1.229,2.338C14.404,28.591,15.149,29.103,15.941,29.103L15.941,29.103z M15.941,29.103"/>
		<path d="M17.404,32.6c0.298,0,0.605-0.073,0.893-0.23c0.031-0.018,0.062-0.049,0.094-0.066c0.838-0.523,1.131-1.602,0.655-2.478
			c-0.48-0.875-1.556-1.212-2.443-0.788c-0.035,0.015-0.067,0.024-0.098,0.038c-0.905,0.492-1.244,1.636-0.749,2.543
			C16.099,32.24,16.736,32.6,17.404,32.6L17.404,32.6z M17.404,32.6"/>
		<path d="M32.794,10.397c-0.03,0.008-0.051,0.022-0.079,0.034c-0.94,0.339-1.451,1.357-1.152,2.312
			c0.245,0.812,0.988,1.315,1.783,1.315c0.164,0,0.325-0.02,0.486-0.064c0.026-0.004,0.052-0.008,0.076-0.016
			c0.988-0.306,1.539-1.357,1.229-2.344C34.832,10.646,33.781,10.089,32.794,10.397L32.794,10.397z M32.794,10.397"/>
		<path d="M30.992,7.058c-0.032,0.02-0.062,0.043-0.095,0.061c-0.839,0.525-1.134,1.604-0.651,2.477
			c0.344,0.625,0.979,0.977,1.646,0.977c0.266,0,0.543-0.071,0.798-0.191c0.032-0.016,0.065-0.02,0.094-0.036
			c0.918-0.501,1.245-1.642,0.749-2.548C33.03,6.892,31.897,6.552,30.992,7.058L30.992,7.058z M30.992,7.058"/>
		<path d="M15.728,7.88c-0.492,0.907-0.151,2.047,0.752,2.54c0.034,0.019,0.067,0.023,0.1,0.036
			c0.255,0.123,0.527,0.191,0.793,0.191c0.667,0,1.314-0.362,1.651-0.984c0.477-0.879,0.176-1.955-0.661-2.475
			c-0.034-0.021-0.063-0.047-0.098-0.064C17.358,6.628,16.22,6.966,15.728,7.88L15.728,7.88z M15.728,7.88"/>
		<path d="M24.653,37.725l5.124,5.124l-5.124,5.126l-5.124-5.126L24.653,37.725z M24.653,37.725"/>
	</g>
</g>
</svg>
