<?xml version="1.0" encoding="utf-8"?>
<!-- Generator: Adobe Illustrator 16.0.0, SVG Export Plug-In . SVG Version: 6.00 Build 0)  -->
<!DOCTYPE svg PUBLIC "-//W3C//DTD SVG 1.1//EN" "http://www.w3.org/Graphics/SVG/1.1/DTD/svg11.dtd">
<svg version="1.1" id="Layer_1" xmlns="http://www.w3.org/2000/svg" xmlns:xlink="http://www.w3.org/1999/xlink" x="0px" y="0px"
	 width="50px" height="50px" viewBox="0 0 50 50" enable-background="new 0 0 50 50" xml:space="preserve">
<g>
	<g>
		<path d="M47.174,27.522c-1.104-1.134-2.418-1.936-3.879-2.485c-1.434-0.543-2.896-1.022-4.449-1.567
			c-0.161-0.325-0.346-0.579-0.414-0.86c-0.523-2.242-1.013-4.495-1.536-6.736c-0.501-2.137-2.18-3.49-4.334-3.497
			c-4.45-0.01-8.901-0.01-13.353,0.003c-2.503,0.006-3.968,1.088-4.694,3.511c-0.525,1.753-1.019,3.516-1.445,5.296
			c-0.323,1.354-0.703,2.56-2.442,2.528c-0.283-0.003-0.572,0.132-0.854,0.221c-2.38,0.755-4.771,1.507-6.638,3.276
			c-1.737,1.648-1.691,3.218-0.119,4.98c1.551,1.734,3.631,2.555,5.699,3.2c4.659,1.457,9.496,2.069,14.37,2.218
			c2.323,0.069,4.646-0.022,6.984-0.228c3.682-0.32,7.292-0.873,10.826-1.911c2.175-0.639,4.292-1.49,5.979-3.046
			C48.153,31.253,48.854,29.254,47.174,27.522z M35.62,30.758c-1.762,0.481-3.585,0.737-5.37,1.137
			c-2.432,0.548-4.902,0.421-7.341,0.285c-2.89-0.166-5.799-0.409-8.567-1.402c-0.556-0.198-1.129-0.409-1.619-0.729
			c-2.249-1.48-2.221-2.852-0.868-4.676c9.033,4.334,18.083,4.643,27.41-0.386c0.1,1.086,0.178,1.949,0.25,2.739
			C38.656,29.433,37.254,30.311,35.62,30.758z"/>
	</g>
</g>
</svg>
