<?xml version="1.0" encoding="utf-8"?>
<!-- Generator: Adobe Illustrator 16.0.0, SVG Export Plug-In . SVG Version: 6.00 Build 0)  -->
<!DOCTYPE svg PUBLIC "-//W3C//DTD SVG 1.1//EN" "http://www.w3.org/Graphics/SVG/1.1/DTD/svg11.dtd">
<svg version="1.1" id="Layer_1" xmlns="http://www.w3.org/2000/svg" xmlns:xlink="http://www.w3.org/1999/xlink" x="0px" y="0px"
	 width="50px" height="50px" viewBox="0 0 50 50" enable-background="new 0 0 50 50" xml:space="preserve">
<g id="g6H1oR_1_">
	<g>
		<path d="M3.086,31.548c0,1.081-0.007,2.147,0.005,3.214c0.003,0.252,0.159,0.376,0.433,0.392c2.682,0.16,5.361,0.368,8.043,0.489
			c3.671,0.163,7.344,0.265,11.017,0.39c2.579,0.088,5.158,0.17,7.738,0.258c0.089,0.004,0.177,0.038,0.265,0.058
			c1.397,0,2.794,0,4.19,0c0.803-0.117,1.606-0.228,2.408-0.352c2.901-0.446,5.807-0.868,8.653-1.609
			c0.335-0.087,0.669-0.2,0.984-0.339c0.171-0.076,0.304-0.233,0.454-0.354c0-0.372,0-0.744,0-1.117
			c-0.093-0.629-0.137-1.272-0.29-1.887c-0.184-0.74-0.422-1.472-0.707-2.179c-0.232-0.572-0.705-0.89-1.345-0.971
			c-1.544-0.196-3.087-0.409-4.627-0.64c-0.234-0.035-0.469-0.165-0.669-0.302c-0.285-0.196-0.539-0.438-0.815-0.668
			c-0.144,0.212-0.248,0.442-0.421,0.59c-0.126,0.105-0.372,0.173-0.513,0.119c-0.104-0.038-0.168-0.301-0.166-0.463
			c0.002-0.216,0.077-0.434,0.136-0.645c0.056-0.206-0.012-0.362-0.206-0.409c-0.117-0.029-0.273,0.006-0.385,0.064
			c-0.269,0.138-0.512,0.322-0.781,0.456c-0.139,0.068-0.322,0.117-0.467,0.087c-0.179-0.036-0.387-0.128-0.485-0.265
			c-0.051-0.069,0.078-0.321,0.184-0.438c0.206-0.228,0.453-0.419,0.69-0.631c-0.631-0.505-1.294-0.698-2.043-0.224
			c-0.264,0.168-0.535,0.344-0.829,0.439c-0.18,0.059-0.473,0.048-0.593-0.063c-0.124-0.114-0.184-0.42-0.121-0.586
			c0.086-0.23,0.283-0.444,0.484-0.601c0.194-0.152,0.452-0.225,0.737-0.356c-0.246-0.149-0.463-0.28-0.72-0.436
			c0.016,0.121,0.024,0.191,0.04,0.316c-0.367-0.378-0.73-0.307-1.087-0.108c-0.355,0.199-0.691,0.433-1.048,0.626
			c-0.239,0.131-0.533,0.32-0.769,0.071c-0.243-0.259-0.062-0.579,0.117-0.789c0.242-0.283,0.556-0.51,0.852-0.742
			c0.113-0.089,0.267-0.125,0.422-0.195c-0.389-0.327-0.747-0.455-1.222-0.207c-0.585,0.305-1.202,0.553-1.816,0.799
			c-0.427,0.17-0.64,0.082-0.81-0.263c-0.159-0.32-0.081-0.688,0.263-0.874c0.428-0.229,0.893-0.389,1.34-0.579
			c0.061-0.026,0.12-0.055,0.218-0.1c-0.277-0.17-0.514-0.34-0.774-0.462c-0.101-0.047-0.275-0.021-0.378,0.037
			c-0.462,0.269-0.908,0.564-1.363,0.844c-0.307,0.189-0.611,0.385-0.931,0.549c-0.427,0.221-0.644,0.158-0.927-0.223
			c-0.236-0.315-0.227-0.646,0.095-0.935c0.423-0.381,0.88-0.724,1.322-1.081c0.126-0.103,0.254-0.198,0.384-0.299
			c-0.441-0.42-0.443-0.423-0.919-0.141c-0.669,0.397-1.333,0.806-2.007,1.197c-0.198,0.116-0.412,0.233-0.635,0.276
			c-0.208,0.039-0.474,0.046-0.643-0.052c-0.254-0.149-0.306-0.485-0.178-0.72c0.174-0.312,0.402-0.643,0.695-0.828
			c0.654-0.414,1.361-0.742,2.071-1.118c-0.435-0.329-0.871-0.688-1.337-1.006c-1.438-0.98-2.886-1.943-4.33-2.913
			c-0.093,0-0.186,0-0.278,0c-0.632,0.86-1.275,1.702-2.159,2.338c-0.332,0.238-0.606,0.577-0.85,0.912
			c-0.342,0.471-0.281,0.827,0.121,1.238c0.543,0.559,1.081,1.12,1.645,1.703c-0.553,0.659-1.189,1.188-1.916,1.611
			c-1.074,0.626-2.225,0.874-3.45,0.596c-1.049-0.239-2.094-0.503-3.131-0.789c-0.294-0.081-0.565-0.266-0.835-0.425
			c-0.441-0.261-0.673-0.641-0.675-1.175c-0.002-0.334-0.067-0.67-0.133-0.999c-0.116-0.594-0.523-0.94-1.06-1.15
			c-0.315-0.125-0.622-0.055-0.813,0.218c-0.292,0.415-0.587,0.839-0.797,1.299c-0.858,1.879-1.691,3.769-2.517,5.663
			c-0.174,0.399-0.269,0.832-0.4,1.25c0,0.303,0,0.605,0,0.908c0.064,0.505,0.127,1.011,0.193,1.517
			c0.074,0.564,0.144,1.13,0.23,1.692c0.031,0.198-0.021,0.33-0.135,0.498L3.086,31.548z"/>
	</g>
</g>
</svg>
