<?xml version="1.0" encoding="utf-8"?>
<!-- Generator: Adobe Illustrator 16.0.0, SVG Export Plug-In . SVG Version: 6.00 Build 0)  -->
<!DOCTYPE svg PUBLIC "-//W3C//DTD SVG 1.1//EN" "http://www.w3.org/Graphics/SVG/1.1/DTD/svg11.dtd">
<svg version="1.1" id="Layer_1" xmlns="http://www.w3.org/2000/svg" xmlns:xlink="http://www.w3.org/1999/xlink" x="0px" y="0px"
	 width="50px" height="50px" viewBox="0 0 50 50" enable-background="new 0 0 50 50" xml:space="preserve">
<g>
	<path fill="#010101" d="M47.937,26.554c0,0-1.986-18.265-8.087-21.511c-0.166-0.088-0.317-0.244-0.499-0.303
		c-2.581-0.782-5.165-1.56-7.752-2.322c-0.126-0.037-0.292-0.037-0.428,0c-0.1-0.016-0.203-0.019-0.297-0.008
		c-0.012,3.155-5.761,5.709-5.776,5.709s-5.764-2.554-5.776-5.709c-0.093-0.012-0.198-0.009-0.296,0.008
		c-0.137-0.038-0.302-0.038-0.428,0c-2.587,0.763-5.171,1.54-7.751,2.322c-0.182,0.059-0.334,0.215-0.5,0.303
		C4.246,8.288,2.26,26.554,2.26,26.554l1.584,13.717l0.768,4.663l0.557-0.09l0.326,1.991l4.999-0.819l-0.326-1.992l0.564-0.093
		L9.874,28.78c0,0,1.662-10.02,2.135-10.438l0.723,26.226h12.366h12.367l0.724-26.226c0.472,0.418,2.136,10.438,2.136,10.438
		l-0.858,15.15l0.563,0.093l-0.325,1.992l4.998,0.819l0.326-1.991l0.557,0.09l0.767-4.663L47.937,26.554z"/>
</g>
</svg>
