<?xml version="1.0" encoding="utf-8"?>
<!-- Generator: Adobe Illustrator 16.0.0, SVG Export Plug-In . SVG Version: 6.00 Build 0)  -->
<!DOCTYPE svg PUBLIC "-//W3C//DTD SVG 1.1//EN" "http://www.w3.org/Graphics/SVG/1.1/DTD/svg11.dtd">
<svg version="1.1" id="Layer_1" xmlns="http://www.w3.org/2000/svg" xmlns:xlink="http://www.w3.org/1999/xlink" x="0px" y="0px"
	 width="50px" height="50px" viewBox="0 0 50 50" enable-background="new 0 0 50 50" xml:space="preserve">
<g id="ZA7nFh_1_">
	<g>
		<path fill-rule="evenodd" clip-rule="evenodd" d="M29.921,2.115c1.103,1.187,2.205,2.373,3.327,3.582
			c-1.954,2.657-3.899,5.302-5.853,7.957c0.93,0.234,1.848,0.397,2.72,0.695c6.275,2.145,10.293,6.426,11.674,12.919
			c1.995,9.384-4.092,18.421-13.517,20.31c-0.637,0.128-1.284,0.206-1.927,0.307c-0.895,0-1.788,0-2.682,0
			c-0.846-0.147-1.708-0.233-2.534-0.453c-6.927-1.842-11.361-6.234-12.902-13.23c-1.955-8.885,3.518-17.663,12.279-20.044
			c0.687-0.187,1.389-0.312,2.142-0.479c-1.965-2.662-3.922-5.314-5.89-7.983c1.123-1.208,2.226-2.394,3.329-3.58
			C23.366,2.115,26.644,2.115,29.921,2.115z M39.309,30.734c-0.049-7.91-6.36-14.276-14.324-14.314
			c-7.78-0.037-14.243,6.404-14.282,14.221c-0.04,7.877,6.378,14.353,14.255,14.384C32.82,45.057,39.26,38.644,39.309,30.734z"/>
	</g>
</g>
</svg>
