<?xml version="1.0" encoding="utf-8"?>
<!-- Generator: Adobe Illustrator 16.0.0, SVG Export Plug-In . SVG Version: 6.00 Build 0)  -->
<!DOCTYPE svg PUBLIC "-//W3C//DTD SVG 1.1//EN" "http://www.w3.org/Graphics/SVG/1.1/DTD/svg11.dtd">
<svg version="1.1" id="Layer_1" xmlns="http://www.w3.org/2000/svg" xmlns:xlink="http://www.w3.org/1999/xlink" x="0px" y="0px"
	 width="50px" height="50px" viewBox="0 0 50 50" enable-background="new 0 0 50 50" xml:space="preserve">
<g id="YAXNQf_1_">
	<g>
		<path fill-rule="evenodd" clip-rule="evenodd" d="M31.476,2.793c1.365,0.334,2.643,0.75,3.617,1.83
			c3.931,4.355,7.854,8.715,11.833,13.027c0.715,0.775,0.951,1.555,0.907,2.559c-0.086,1.92-0.316,3.807-1.077,5.584
			c-1.159,2.703-3.156,4.254-6.154,4.404c-0.345,0.018-0.511-0.086-0.654-0.402c-1.63-3.617-3.275-7.227-4.917-10.836
			c-0.062-0.137-0.134-0.268-0.287-0.389c0.037,0.473,0.068,0.945,0.114,1.418c0.185,1.932,0.37,3.861,0.569,5.791
			c0.026,0.236-0.015,0.35-0.248,0.453c-3.563,1.555-7.245,2.568-11.171,2.459c-0.645-0.018-1.287-0.125-1.931-0.158
			c-0.305-0.02-0.402-0.158-0.402-0.43c-0.004-1.555-0.068-3.113,0.003-4.664c0.082-1.754,0.357-3.486,0.972-5.15
			c0.572-1.549,1.492-2.756,2.965-3.625c3.516-2.068,5.321-5.266,5.735-9.281C31.437,4.545,31.437,3.697,31.476,2.793z"/>
		<path fill-rule="evenodd" clip-rule="evenodd" d="M19.032,27.787c-1.516-0.535-2.86-1.229-4.019-2.246
			c-0.14-0.121-0.222-0.402-0.203-0.598c0.117-1.303,0.269-2.6,0.407-3.902c0.087-0.803,0.166-1.607,0.248-2.41
			c-0.039-0.01-0.078-0.021-0.117-0.033c-1.669,3.855-3.338,7.709-5.022,11.6c-1.337-0.291-2.568-0.783-3.692-1.529
			c-2.521-1.672-3.837-4.098-4.3-7.025c-0.133-0.83-0.146-1.684-0.172-2.529c-0.007-0.223,0.084-0.5,0.231-0.664
			c4.116-4.586,8.25-9.154,12.363-13.74c0.92-1.025,2.087-1.518,3.391-1.828c0.299,4.074,0.859,8,4.312,10.811
			c-1.075,1.064-1.811,2.344-2.319,3.762c-0.699,1.947-1.014,3.965-1.097,6.016C18.986,24.881,19.032,26.301,19.032,27.787z"/>
		<path fill-rule="evenodd" clip-rule="evenodd" d="M23.913,47.906c-0.072-0.936-0.104-1.842-0.221-2.738
			c-0.238-1.844-0.545-3.682-0.786-5.525c-0.289-2.209-0.538-4.428-0.801-6.643c-0.067-0.576-0.119-1.158-0.189-1.824
			c4.832,0.572,9.374-0.453,13.811-2.309c0.172,1.455,0.335,2.844,0.498,4.23c0.294,2.52,0.587,5.041,0.883,7.562
			c0.135,1.158,0.258,2.322,0.419,3.479c0.048,0.354-0.119,0.496-0.377,0.646c-2.399,1.414-4.987,2.344-7.73,2.75
			c-1.652,0.246-3.338,0.273-5.009,0.395C24.249,47.941,24.081,47.914,23.913,47.906z"/>
		<path fill-rule="evenodd" clip-rule="evenodd" d="M14.439,28.504c0.893,0.453,1.758,0.92,2.645,1.334
			c0.542,0.252,1.107,0.463,1.682,0.625c0.36,0.1,0.477,0.27,0.513,0.623c0.244,2.324,0.481,4.648,0.776,6.969
			c0.254,1.998,0.599,3.984,0.867,5.979c0.159,1.186,0.25,2.379,0.384,3.688c-1.027-0.223-1.944-0.389-2.845-0.619
			c-2.005-0.512-3.915-1.27-5.7-2.33c-0.292-0.174-0.383-0.354-0.336-0.703c0.438-3.309,0.852-6.619,1.272-9.93
			c0.222-1.742,0.438-3.48,0.659-5.219C14.376,28.771,14.414,28.627,14.439,28.504z"/>
		<path fill-rule="evenodd" clip-rule="evenodd" d="M20.795,2.307c1.439-0.088,2.819-0.227,4.199-0.238
			c1.119-0.01,2.243,0.125,3.36,0.221c0.133,0.01,0.352,0.17,0.362,0.277c0.221,2.424-0.059,4.76-1.365,6.887
			c-0.553,0.9-1.275,1.65-2.096,2.312c-0.26,0.213-0.46,0.207-0.739,0.055c-1.043-0.566-1.773-1.42-2.299-2.455
			C21.11,7.184,20.87,4.824,20.795,2.307z"/>
	</g>
</g>
</svg>
