<?xml version="1.0" encoding="UTF-8" standalone="no"?>
<svg width="166px" height="68px" viewBox="0 0 166 68" version="1.1" xmlns="http://www.w3.org/2000/svg" xmlns:xlink="http://www.w3.org/1999/xlink" xmlns:sketch="http://www.bohemiancoding.com/sketch/ns">
    <!-- Generator: Sketch 3.3.1 (12002) - http://www.bohemiancoding.com/sketch -->
    <title>Ebay</title>
    <desc>Created with Sketch.</desc>
    <defs></defs>
    <g id="Page-1" stroke="none" stroke-width="1" fill="none" fill-rule="evenodd" sketch:type="MSPage">
        <g id="iPhone-6" sketch:type="MSArtboardGroup" transform="translate(-19.000000, -180.000000)" fill="#000000">
            <g id="Ebay" sketch:type="MSLayerGroup" transform="translate(19.000000, 180.000000)">
                <path d="M120.73966,20.7545714 C120.735946,20.7508571 120.735946,20.7434286 120.735946,20.736 C120.735946,20.7434286 120.735946,20.7508571 120.73966,20.7545714" id="Fill-3" sketch:type="MSShapeGroup"></path>
                <path d="M120.732232,20.6988571 C120.732232,20.6914286 120.728517,20.6877143 120.728517,20.6802857 C120.728517,20.6877143 120.732232,20.6914286 120.732232,20.6988571" id="Fill-4" sketch:type="MSShapeGroup"></path>
                <path d="M120.758232,20.8028571 C120.754517,20.7991429 120.750803,20.7917143 120.747089,20.7842857 C120.750803,20.7917143 120.754517,20.7991429 120.758232,20.8028571" id="Fill-5" sketch:type="MSShapeGroup"></path>
                <path d="M120.732232,20.6357143 C120.732232,20.632 120.732232,20.6282857 120.735946,20.6245714 C120.732232,20.6282857 120.732232,20.632 120.732232,20.6357143" id="Fill-6" sketch:type="MSShapeGroup"></path>
                <path d="M120.79166,20.84 C120.784232,20.8362857 120.776803,20.8325714 120.773089,20.8288571 C120.776803,20.8325714 120.784232,20.8362857 120.79166,20.84" id="Fill-7" sketch:type="MSShapeGroup"></path>
                <path d="M120.836232,20.8697143 C120.828803,20.866 120.821375,20.866 120.813946,20.8622857 C120.821375,20.866 120.828803,20.866 120.836232,20.8697143" id="Fill-8" sketch:type="MSShapeGroup"></path>
                <path id="Fill-9" sketch:type="MSShapeGroup"></path>
                <path d="M120.943946,20.7842857 L120.943946,20.84 C120.940232,20.8214286 120.943946,20.8028571 120.943946,20.7842857" id="Fill-10" sketch:type="MSShapeGroup"></path>
                <path id="Fill-11" sketch:type="MSShapeGroup"></path>
                <path d="M102.171946,49.3731429 C100.236803,49.4214286 98.3648031,49.1614286 96.6488031,48.2885714 C98.3648031,49.1614286 100.236803,49.4214286 102.171946,49.3731429 C102.43566,49.3731429 102.69566,49.3768571 102.95566,49.3694286 C102.69566,49.3768571 102.43566,49.3731429 102.171946,49.3731429" id="Fill-12" sketch:type="MSShapeGroup"></path>
                <path d="M120.94766,20.892 C120.943946,20.8771429 120.943946,20.8585714 120.943946,20.84 C120.943946,20.8585714 120.943946,20.8771429 120.94766,20.892" id="Fill-13" sketch:type="MSShapeGroup"></path>
                <path d="M84.9970888,32.4954286 C84.283946,26.6268571 81.657946,21.9171429 76.613946,18.708 C72.1865174,15.8851429 67.3022317,15.1311429 62.1616602,15.7662857 C58.6033745,16.2045714 55.3310888,17.3671429 52.5490888,19.6997143 C51.8508031,20.2828571 51.2156602,20.9328571 50.4542317,21.646 L50.4542317,20.6654286 C50.4542317,14.444 50.4356602,8.22257143 50.4765174,2.00114286 C50.483946,1.12828571 50.2276602,0.957428571 49.417946,0.983428571 C47.2970888,1.03914286 45.1688031,1.03914286 43.0516602,0.983428571 C42.2865174,0.961142857 42.0896602,1.16171429 42.0933745,1.938 C42.1193745,10.6294286 42.1082317,19.3208571 42.1045174,28.0085714 C42.1045174,29.3197143 42.0785174,30.6271429 42.0636602,31.9345714 L42.0636602,37.3091429 C42.0785174,37.6248571 42.1045174,37.9442857 42.1045174,38.2637143 C42.1045174,43.0514286 42.1862317,47.8428571 41.8853745,52.6231429 C41.8445174,53.2694286 41.9893745,53.4848571 42.6690888,53.4737143 C44.8456602,53.4291429 47.025946,53.4328571 49.2025174,53.4737143 C49.8636602,53.4848571 50.1125174,53.3102857 50.1273745,52.612 C50.1496602,51.3008571 50.2796602,49.9934286 50.379946,48.5411429 C51.2268031,49.4771429 52.0142317,50.246 52.8982317,50.9034286 C57.0248031,53.9677143 61.7308031,55.0077143 66.7710888,54.7477143 C72.2645174,54.4654286 76.9408031,52.4002857 80.6142317,48.2254286 C82.307946,46.3014286 83.3925174,44.0394286 84.2728031,41.6622857 C84.5030888,40.6334286 84.7408031,39.6082857 84.9710888,38.5794286 C85.1382317,36.5551429 85.2496602,34.5308571 84.9970888,32.4954286 L84.9970888,32.4954286 Z M74.7085174,42.5202857 C72.3128031,47.0071429 68.4090888,48.9831429 64.4088031,49.0685714 C56.4788031,49.0685714 51.3085174,44.3365714 50.6028031,37.402 C50.2796602,34.2151429 50.5805174,31.1471429 51.965946,28.2351429 C54.3950888,23.1168571 59.4688031,20.9217143 64.6465174,21.3377143 C71.647946,21.9022857 75.8413745,27.158 76.3168031,33.658 C76.5470888,36.7631429 76.1793745,39.7568571 74.7085174,42.5202857 L74.7085174,42.5202857 Z" id="Fill-14" sketch:type="MSShapeGroup"></path>
                <path id="Fill-15" sketch:type="MSShapeGroup"></path>
                <path d="M120.94766,20.892 C120.92166,20.892 120.89566,20.8882857 120.873375,20.8845714 C120.858517,20.8808571 120.847375,20.8734286 120.836232,20.8697143 C120.828803,20.866 120.821375,20.866 120.813946,20.8622857 C120.806517,20.8548571 120.799089,20.8474286 120.79166,20.84 C120.784232,20.8362857 120.776803,20.8325714 120.773089,20.8288571 C120.76566,20.8214286 120.761946,20.814 120.758232,20.8028571 C120.754517,20.7991429 120.750803,20.7917143 120.747089,20.7842857 C120.743375,20.7768571 120.73966,20.7657143 120.73966,20.7545714 C120.735946,20.7508571 120.735946,20.7434286 120.735946,20.736 C120.732232,20.7248571 120.732232,20.7137143 120.732232,20.6988571 C120.732232,20.6914286 120.728517,20.6877143 120.728517,20.6802857 C120.732232,20.6691429 120.732232,20.6505714 120.732232,20.6357143 C120.732232,20.632 120.732232,20.6282857 120.735946,20.6245714 C120.735946,20.6022857 120.73966,20.5874286 120.743375,20.5651429 C120.646803,20.5168571 120.53166,20.4871429 120.461089,20.4165714 C118.540803,18.396 116.133946,17.2334286 113.481946,16.5277143 C109.095375,15.354 104.64566,15.3317143 100.181089,15.9185714 C97.049946,16.3308571 94.0450888,17.1702857 91.4190888,19.0311429 C89.0568031,20.7025714 87.611946,22.9794286 87.1142317,25.8282857 C87.0473745,26.2108571 86.753946,26.7865714 87.6193745,26.7791429 C90.1488031,26.7531429 92.6782317,26.768 95.203946,26.7717143 C95.5196602,26.7717143 95.7388031,26.7308571 95.8205174,26.3371429 C96.3330888,23.8634286 98.0788031,22.5782857 100.30366,21.8094286 C102.632517,21.0071429 105.03566,21.0182857 107.449946,21.2708571 C112.638803,21.8205714 115.379946,24.766 115.353946,29.7431429 C115.350232,30.3374286 115.223946,30.5268571 114.596232,30.5231429 C111.981375,30.4934286 109.366517,30.4971429 106.75166,30.5417143 C102.892517,30.6085714 99.0296602,30.7162857 95.2373745,31.5557143 C90.8842317,32.5214286 86.9730888,34.1631429 84.9710888,38.5794286 C84.7408031,39.6082857 84.5030888,40.6334286 84.2728031,41.6622857 C84.283946,43.0217143 84.1910888,44.3885714 84.5662317,45.7294286 C85.635946,49.5662857 88.2693745,51.9248571 91.8313745,53.3808571 C95.5902317,54.9148571 99.519946,54.9668571 103.483089,54.6362857 C107.082232,54.3354286 110.406517,53.2731429 113.259089,50.9591429 C114.172803,50.2162857 114.963946,49.3397143 115.862803,48.4074286 C115.970517,49.986 116.089375,51.416 116.16366,52.8497143 C116.18966,53.3511429 116.390232,53.47 116.858232,53.4662857 C119.005089,53.444 121.159375,53.444 123.306232,53.4662857 C123.796517,53.47 123.959946,53.3251429 123.922803,52.8125714 C123.536517,47.3897143 123.796517,41.9557143 123.70366,36.5254286 C123.640517,32.7034286 124.037946,28.8591429 123.187375,25.0742857 C123.038803,24.7065714 122.882803,24.3388571 122.719375,23.9822857 C122.22166,22.9014286 121.642232,21.8651429 120.94766,20.892 L120.94766,20.892 Z M111.167946,46.7174286 C108.783375,48.6117143 105.94566,49.2654286 102.95566,49.3694286 C102.69566,49.3768571 102.43566,49.3731429 102.171946,49.3731429 C100.236803,49.4214286 98.3648031,49.1614286 96.6488031,48.2885714 C96.399946,48.1622857 96.1622317,48.0285714 95.9245174,47.8762857 C92.9605174,46.0005714 92.083946,42.1117143 94.0190888,39.4708571 C94.8436602,38.3417143 96.0322317,37.7437143 97.3136602,37.3128571 C99.701946,36.5142857 102.186803,36.3508571 104.682803,36.2282857 C108.018232,36.0648571 111.35366,36.102 114.689089,36.0834286 C114.997375,36.0797143 115.33166,35.9497143 115.342803,36.4882857 C115.417089,40.4997143 114.44766,44.1062857 111.167946,46.7174286 L111.167946,46.7174286 Z" id="Fill-16" sketch:type="MSShapeGroup"></path>
                <path d="M41.7442317,30.2297143 C40.4702317,23.5551429 36.7410888,18.9271429 30.2188031,16.8471429 C24.0828031,14.886 17.8910888,15.068 11.8293745,17.2074286 C6.49194596,19.0942857 3.01908882,22.8605714 1.38108882,28.2982857 C0.341088818,31.7748571 0.118231675,35.3294286 0.593660246,38.9025714 C1.55566025,46.0934286 5.38508882,51.026 12.3233745,53.3957143 C16.4090888,54.7885714 20.6248031,55.0151429 24.8850888,54.6362857 C28.4508031,54.3131429 31.8605174,53.4254286 34.9433745,51.5274286 C37.9110888,49.6925714 39.9316602,47.1445714 40.8305174,43.7385714 C40.9865174,43.1442857 41.0125174,42.8248571 40.1953745,42.8434286 C37.8405174,42.9028571 35.4856602,42.8768571 33.1308031,42.8545714 C32.6442317,42.8508571 32.361946,42.9548571 32.1650888,43.4637143 C31.451946,45.2948571 30.1630888,46.6468571 28.4656602,47.6014286 C25.8656602,49.0685714 23.0502317,49.3954286 20.1270888,49.1762857 C14.0356602,48.7157143 9.5228031,44.292 8.92851739,38.2302857 C8.8468031,37.4502857 9.03623167,37.2905714 9.80508882,37.2905714 C20.5616602,37.3165714 31.3108031,37.3091429 42.0636602,37.3091429 L42.0636602,31.9345714 C41.955946,31.3662857 41.851946,30.7942857 41.7442317,30.2297143 L41.7442317,30.2297143 Z M32.7296602,31.7302857 C28.8928031,31.7228571 25.055946,31.7265714 21.2190888,31.7265714 C17.4156602,31.7265714 13.6085174,31.7117143 9.80137453,31.7414286 C9.14766025,31.7488571 9.04366025,31.5445714 9.13651739,30.9577143 C10.027946,25.4754286 13.9130888,21.8354286 19.4622317,21.2411429 C22.1105174,20.9588571 24.691946,21.1297143 27.1582317,22.1585714 C31.1436602,23.8188571 33.0156602,26.9685714 33.3870888,31.1582857 C33.4390888,31.7785714 33.1270888,31.7302857 32.7296602,31.7302857 L32.7296602,31.7302857 Z" id="Fill-17" sketch:type="MSShapeGroup"></path>
                <path d="M158.04966,16.9214286 C157.34766,16.9065714 156.98366,17.122 156.667946,17.7608571 C152.273946,26.6454286 147.842803,35.5225714 143.419089,44.396 C143.289089,44.6597143 143.222232,44.9754286 142.910232,45.1871429 C142.750517,44.8788571 142.594517,44.6077143 142.453375,44.3254286 C138.014803,35.4482857 133.572517,26.5785714 129.156232,17.694 C128.870232,17.122 128.550803,16.9102857 127.908232,16.9214286 C125.26366,16.9585714 122.615375,16.9362857 119.970803,16.9362857 C119.005089,16.94 119.031089,16.9288571 119.454517,17.8054286 C119.896517,18.7191429 120.565089,19.5214286 120.747089,20.554 C120.969946,20.5391429 120.951375,20.6654286 120.943946,20.7842857 C120.943946,20.8028571 120.940232,20.8214286 120.943946,20.84 C120.943946,20.8585714 120.943946,20.8771429 120.94766,20.892 C121.642232,21.8651429 122.22166,22.9014286 122.719375,23.9822857 C122.882803,24.3388571 123.038803,24.7065714 123.187375,25.0742857 C123.491946,25.2042857 123.555089,25.52 123.681375,25.7651429 C128.472803,34.7722857 133.24566,43.7942857 138.044517,52.7977143 C138.293375,53.2657143 138.200517,53.6 137.988803,54.0011429 C136.763089,56.304 135.552232,58.6142857 134.330232,60.9208571 C133.227089,63.0157143 132.123946,65.1105714 130.972517,67.2945714 C131.343946,67.3131429 131.592803,67.3354286 131.845375,67.3354286 C134.400803,67.3354286 136.959946,67.3094286 139.515375,67.354 C140.150517,67.3651429 140.425375,67.12 140.692803,66.5925714 C145.164803,57.7748571 149.65166,48.972 154.145946,40.1617143 C157.288232,33.9885714 160.437946,27.8191429 163.576517,21.646 C164.360232,20.1045714 165.125375,18.5594286 165.942517,16.9362857 C163.219946,16.9362857 160.638517,16.9622857 158.04966,16.9214286" id="Fill-18" sketch:type="MSShapeGroup"></path>
                <path d="M120.747089,20.554 L120.743375,20.554 L120.747089,20.554" id="Fill-19" sketch:type="MSShapeGroup"></path>
                <path d="M120.732232,20.6357143 C120.732232,20.6505714 120.732232,20.6691429 120.728517,20.6802857 C120.728517,20.6877143 120.732232,20.6914286 120.732232,20.6988571 C120.732232,20.7137143 120.732232,20.7248571 120.735946,20.736 C120.735946,20.7434286 120.735946,20.7508571 120.73966,20.7545714 C120.73966,20.7657143 120.743375,20.7768571 120.747089,20.7842857 C120.750803,20.7917143 120.754517,20.7991429 120.758232,20.8028571 C120.761946,20.814 120.76566,20.8214286 120.773089,20.8288571 C120.776803,20.8325714 120.784232,20.8362857 120.79166,20.84 C120.799089,20.8474286 120.806517,20.8548571 120.813946,20.8622857 C120.821375,20.866 120.828803,20.866 120.836232,20.8697143 C120.847375,20.8734286 120.858517,20.8808571 120.873375,20.8845714 C120.89566,20.8882857 120.92166,20.892 120.94766,20.892 C120.943946,20.8771429 120.943946,20.8585714 120.943946,20.84 L120.943946,20.7842857 C120.951375,20.6654286 120.969946,20.5391429 120.747089,20.554 L120.743375,20.554 L120.743375,20.5651429 C120.73966,20.5874286 120.735946,20.6022857 120.735946,20.6245714 C120.732232,20.6282857 120.732232,20.632 120.732232,20.6357143" id="Fill-20" sketch:type="MSShapeGroup"></path>
            </g>
        </g>
    </g>
</svg>