<?xml version="1.0" encoding="UTF-8" standalone="no"?>
<svg width="36px" height="20px" viewBox="-5 3 36 20" version="1.1" xmlns="http://www.w3.org/2000/svg" xmlns:xlink="http://www.w3.org/1999/xlink" xmlns:sketch="http://www.bohemiancoding.com/sketch/ns">
    <!-- Generator: Sketch 3.3.2 (12043) - http://www.bohemiancoding.com/sketch -->
    <title>0E05E-empty-heart</title>
    <desc>Created with Sketch.</desc>
    <defs></defs>
    <g id="Page-1" stroke="none" stroke-width="1" fill="none" fill-rule="evenodd" sketch:type="MSPage">
        <path d="M12.1563778,19.5255433 C6.19953246,17.544747 1.26766299,12.2197997 1.66656027,7.53653488 C1.85060353,4.10876025 4.03031126,1.62507355 6.99165568,1.49955144 C8.48455671,1.56617911 9.65690894,2.09101636 10.5301,2.92445104 C10.8563191,3.23581742 11.1169458,3.56917716 11.3175533,3.90099964 C11.4348513,4.09502101 11.5042396,4.24019966 11.5316832,4.31185535 L12.022866,5.59434108 L12.4712135,4.29625996 C12.4953145,4.22648157 12.5588167,4.08322859 12.6690245,3.89116632 C12.8579596,3.56190361 13.1083423,3.23095001 13.4271655,2.92160917 C14.2834816,2.09076148 15.4651919,1.56634156 17.0483711,1.49955571 C19.9660977,1.62505824 22.1455939,4.1085039 22.3307086,7.52118279 C22.7472067,12.0980086 17.7226631,17.569694 11.840841,19.5255433 L12.1563778,19.5255433 L12.1563778,19.5255433 Z M11.840841,20.4744567 L11.9986094,20.5269185 L12.1563778,20.4744567 C18.431767,18.3877367 23.792505,12.5499384 23.3279137,7.44875113 C23.1177493,3.56807358 20.5560967,0.649176431 17.0484791,0.500448863 C15.1736445,0.577751007 13.7604432,1.20490207 12.7308121,2.20391011 C12.0611752,2.85363079 11.6852251,3.50880973 11.5260053,3.96979204 L12.4655356,3.95419665 C12.2906947,3.4976843 11.8973485,2.84705478 11.2205472,2.20106824 C10.176595,1.20464719 8.77663209,0.577913453 6.99216006,0.500470192 C3.44022863,0.649187382 0.878130715,3.56859186 0.669081383,7.46732958 C0.225158274,12.676317 5.49250578,18.3634804 11.840841,20.4744567 L11.840841,20.4744567 Z" id="0E05E-empty-heart" fill="#E44141" sketch:type="MSShapeGroup"></path>
    </g>
</svg>