<?xml version="1.0" encoding="utf-8"?>
<!-- Generator: Adobe Illustrator 16.0.0, SVG Export Plug-In . SVG Version: 6.00 Build 0)  -->
<!DOCTYPE svg PUBLIC "-//W3C//DTD SVG 1.1//EN" "http://www.w3.org/Graphics/SVG/1.1/DTD/svg11.dtd">
<svg version="1.1" id="Layer_1" xmlns="http://www.w3.org/2000/svg" xmlns:xlink="http://www.w3.org/1999/xlink" x="0px" y="0px"
	 width="50px" height="50px" viewBox="0 0 50 50" enable-background="new 0 0 50 50" xml:space="preserve">
<g>
	<path fill="#010101" d="M31.406,14.985V4.413c0-1.264-1.025-2.288-2.289-2.288h-8.234c-1.264,0-2.289,1.024-2.289,2.288v10.572
		c-3.297,2.116-5.488,5.812-5.488,10.015s2.191,7.899,5.488,10.017v10.57c0,1.264,1.025,2.288,2.289,2.288h8.234
		c1.264,0,2.289-1.024,2.289-2.288v-10.57c3.297-2.117,5.488-5.814,5.488-10.017S34.703,17.102,31.406,14.985z M31.406,32.759
		c-1.742,1.439-3.975,2.307-6.406,2.307c-2.43,0-4.664-0.867-6.406-2.307c-2.232-1.848-3.66-4.641-3.66-7.759s1.428-5.91,3.66-7.758
		c1.742-1.441,3.977-2.307,6.406-2.307c2.432,0,4.664,0.865,6.406,2.307c2.232,1.848,3.658,4.64,3.658,7.758
		S33.639,30.911,31.406,32.759z"/>
	<path fill="#010101" d="M32.32,20.425c0-0.505-0.41-0.914-0.914-0.914c-0.199,0-0.383,0.064-0.531,0.172l-0.002-0.002l-5.811,4.151
		l-3.572-3.175l-0.002,0.002c-0.162-0.144-0.373-0.234-0.605-0.234c-0.506,0-0.914,0.41-0.914,0.915
		c0,0.271,0.119,0.514,0.307,0.682v0.002l4.117,3.66l0.002-0.003c0.162,0.144,0.371,0.234,0.605,0.234
		c0.199,0,0.379-0.065,0.531-0.172v0.001l6.406-4.574l-0.002-0.002C32.166,21.002,32.32,20.732,32.32,20.425z"/>
</g>
</svg>
