<?xml version="1.0" encoding="UTF-8" standalone="no"?>
<svg width="23px" height="23px" viewBox="0 0 23 23" version="1.1" xmlns="http://www.w3.org/2000/svg" xmlns:xlink="http://www.w3.org/1999/xlink" xmlns:sketch="http://www.bohemiancoding.com/sketch/ns">
    <!-- Generator: Sketch 3.3.2 (12043) - http://www.bohemiancoding.com/sketch -->
    <title>comment_icon</title>
    <desc>Created with Sketch.</desc>
    <defs></defs>
    <g id="Mobile.com" stroke="none" stroke-width="1" fill="none" fill-rule="evenodd" sketch:type="MSPage">
        <g id="Menu" sketch:type="MSArtboardGroup" transform="translate(-85.000000, -620.000000)" stroke="#FFFFFF" stroke-width="0.4" fill="#E44141">
            <path d="M96.8956514,621 C90.882789,621 86,625.270826 86,630.540128 C86,633.546257 87.5975229,636.227028 90.0837248,637.976532 L90.0837248,642.799376 L95.6656697,640.005376 C96.0715596,640.052 96.4831009,640.072183 96.8956514,640.072183 C102.916789,640.072183 107.799376,635.801156 107.799376,630.540128 C107.799376,625.270826 102.916789,621 96.8956514,621 L96.8956514,621 Z M96.8956514,638.708385 C96.277633,638.708385 95.6656697,638.655101 95.0738899,638.555394 L95.5401284,638.715046 L91.4483303,640.757211 L91.4483303,637.352862 L91.9539266,637.51756 C89.2063486,636.080697 87.3635963,633.499633 87.3635963,630.540128 C87.3635963,626.022459 91.6352294,622.363596 96.8956514,622.363596 C102.164954,622.363596 106.43578,626.022459 106.43578,630.540128 C106.43578,635.049523 102.164954,638.708385 96.8956514,638.708385 L96.8956514,638.708385 Z" id="comment_icon" sketch:type="MSShapeGroup"></path>
        </g>
    </g>
</svg>