<?xml version="1.0" encoding="UTF-8" standalone="no"?>
<svg
   xmlns:dc="http://purl.org/dc/elements/1.1/"
   xmlns:cc="http://creativecommons.org/ns#"
   xmlns:rdf="http://www.w3.org/1999/02/22-rdf-syntax-ns#"
   xmlns:svg="http://www.w3.org/2000/svg"
   xmlns="http://www.w3.org/2000/svg"
   id="svg2"
   version="1.1"
   viewBox="0 0 28 18"
   height="18px"
   width="28px">
  <metadata
     id="metadata20">
    <rdf:RDF>
      <cc:Work
         rdf:about="">
        <dc:format>image/svg+xml</dc:format>
        <dc:type
           rdf:resource="http://purl.org/dc/dcmitype/StillImage" />
        <dc:title>B5ACC4BC-36EC-4088-952E-1EF7DF6FEE94</dc:title>
      </cc:Work>
    </rdf:RDF>
  </metadata>
  <!-- Generator: sketchtool 39.1 (31720) - http://www.bohemiancoding.com/sketch -->
  <title
     id="title4">B5ACC4BC-36EC-4088-952E-1EF7DF6FEE94</title>
  <desc
     id="desc6">Created with sketchtool.</desc>
  <defs
     id="defs8" />
  <g
     style="fill:none;stroke:#000000;stroke-opacity:1"
     fill-rule="evenodd"
     fill="#000000"
     stroke-width="1"
     stroke="none"
     id="Page-1">
    <g
       style="fill:none;stroke:#000000;stroke-opacity:1"
       stroke="none"
       transform="translate(-1006.000000, -350.000000)"
       id="Looklive-Bnt-Update">
      <g
         style="fill:none;stroke:#000000;stroke-opacity:1"
         transform="translate(935.000000, 344.000000)"
         id="btn_shop_lg">
        <g
           style="fill:none;stroke:#000000;stroke-opacity:1"
           transform="translate(71.000000, 7.000000)"
           id="Group">
          <g
             style="fill:none;stroke:#000000;stroke-opacity:1"
             id="ic_shop_hanger_white">
            <path
               id="Path-2"
               d="M 13.119141,-0.5 C 11.679069,-0.5 10.5,0.67906917 10.5,2.1191406 l 1,0 C 11.5,1.2195093 12.21951,0.5 13.119141,0.5 c 0.899632,0 1.617187,0.7195093 1.617187,1.6191406 0,0.8996313 -0.717555,1.6171875 -1.617187,1.6171875 l 0,0.5 -0.09375,0 0,0.9453125 -11.6093754,7.8945314 c -0.48733572,0.331388 -0.85038712,0.653715 -1.0957031,0.996094 -0.24531598,0.342378 -0.38865966,0.753973 -0.26367188,1.154296 0.12498779,0.400324 0.47474492,0.658311 0.87109376,0.802735 0.39634882,0.144423 0.88015392,0.205078 1.47070312,0.205078 l 22.2539065,0 c 0.590773,0 1.074295,-0.06066 1.470703,-0.205078 0.396408,-0.144416 0.744236,-0.402333 0.869141,-0.802735 0.124904,-0.400401 -0.01633,-0.81196 -0.261719,-1.154296 -0.245385,-0.342337 -0.608367,-0.664705 -1.095703,-0.996094 l -11.609375,-7.8945314 0,-0.8222656 C 14.973829,3.9648662 15.736328,3.2061124 15.736328,2.1191406 15.736328,0.67906917 14.559213,-0.5 13.119141,-0.5 Z m 0.40625,6.5507812 11.546875,7.8535158 c 0.424388,0.288585 0.706022,0.557084 0.845703,0.751953 0.139681,0.194869 0.12293,0.267551 0.121093,0.273438 -0.0018,0.0059 -0.03248,0.07735 -0.259765,0.160156 -0.227287,0.0828 -0.611931,0.144531 -1.126953,0.144531 l -22.2539065,0 c -0.5147613,0 -0.9016639,-0.06173 -1.1289063,-0.144531 -0.2272423,-0.0828 -0.2559483,-0.156139 -0.2578124,-0.16211 -0.00186,-0.006 -0.0184976,-0.07861 0.1210937,-0.273437 0.1395913,-0.194823 0.4213522,-0.461441 0.8457031,-0.75 L 13.525391,6.0507812 Z"
               style="color:#000000;font-style:normal;font-variant:normal;font-weight:normal;font-stretch:normal;font-size:medium;line-height:normal;font-family:sans-serif;text-indent:0;text-align:start;text-decoration:none;text-decoration-line:none;text-decoration-style:solid;text-decoration-color:#000000;letter-spacing:normal;word-spacing:normal;text-transform:none;direction:ltr;block-progression:tb;writing-mode:lr-tb;baseline-shift:baseline;text-anchor:start;white-space:normal;clip-rule:nonzero;display:inline;overflow:visible;visibility:visible;opacity:1;isolation:auto;mix-blend-mode:normal;color-interpolation:sRGB;color-interpolation-filters:linearRGB;solid-color:#000000;solid-opacity:1;fill:#000000;fill-opacity:1;fill-rule:nonzero;stroke:none;stroke-width:1;stroke-linecap:butt;stroke-linejoin:miter;stroke-miterlimit:4;stroke-dasharray:none;stroke-dashoffset:0;stroke-opacity:1;color-rendering:auto;image-rendering:auto;shape-rendering:auto;text-rendering:auto;enable-background:accumulate" />
          </g>
        </g>
      </g>
    </g>
  </g>
</svg>
