<?xml version="1.0" encoding="utf-8"?>
<!-- Generator: Adobe Illustrator 16.0.0, SVG Export Plug-In . SVG Version: 6.00 Build 0)  -->
<!DOCTYPE svg PUBLIC "-//W3C//DTD SVG 1.1//EN" "http://www.w3.org/Graphics/SVG/1.1/DTD/svg11.dtd">
<svg version="1.1" id="Layer_1" xmlns="http://www.w3.org/2000/svg" xmlns:xlink="http://www.w3.org/1999/xlink" x="0px" y="0px"
	 width="50px" height="50px" viewBox="0 0 50 50" enable-background="new 0 0 50 50" xml:space="preserve">
<g id="QsVGaw_1_">
	<g>
		<path d="M22.117,49.142c0.107-0.133,0.191-0.251,0.288-0.355c1.471-1.575,2.908-3.188,4.436-4.703
			c0.679-0.675,0.837-1.345,0.736-2.255c-0.354-3.184-0.636-6.375-0.938-9.564c-0.274-2.901-0.532-5.804-0.807-8.705
			c-0.274-2.9-0.559-5.801-0.84-8.701c-0.111-1.146-0.222-2.294-0.335-3.447c-1.777-0.226-3.494-0.209-5.205,0.021
			c-0.146,0.019-0.355,0.286-0.374,0.456c-0.281,2.754-0.537,5.513-0.796,8.27c-0.407,4.324-0.808,8.651-1.22,12.977
			c-0.305,3.205-0.627,6.411-0.918,9.619c-0.02,0.212,0.089,0.503,0.24,0.655C18.256,45.303,20.146,47.178,22.117,49.142z
			 M21.857,0.858c-1.447-0.002-2.848,0.223-4.162,0.855C16.289,2.393,16,2.953,16.287,4.486c0.313,1.674,1.08,3.172,1.85,4.669
			c0.153,0.301,0.306,0.337,0.627,0.303c1.095-0.117,2.197-0.226,3.298-0.239c0.955-0.012,1.911,0.121,2.868,0.163
			c0.223,0.009,0.577-0.024,0.653-0.16c0.899-1.615,1.717-3.27,1.979-5.128c0.133-0.95-0.159-1.677-1.056-2.169
			C25.049,1.125,23.487,0.869,21.857,0.858z M32.358,39.45c0.457-0.805,0.876-1.584,1.337-2.338
			c0.199-0.328,0.199-0.611,0.079-0.961c-1.757-5.07-3.499-10.146-5.248-15.219c-0.377-1.097-0.762-2.191-1.145-3.285
			c0.128,2.09,0.312,4.158,0.51,6.229c0.275,2.897,0.562,5.796,0.838,8.694c0.162,1.692,0.309,3.387,0.478,5.08
			c0.021,0.193,0.106,0.481,0.246,0.546C30.397,38.638,31.367,39.028,32.358,39.45z"/>
	</g>
</g>
</svg>
