<?xml version="1.0" encoding="UTF-8" standalone="no"?>
<svg
   xmlns:dc="http://purl.org/dc/elements/1.1/"
   xmlns:cc="http://creativecommons.org/ns#"
   xmlns:rdf="http://www.w3.org/1999/02/22-rdf-syntax-ns#"
   xmlns:svg="http://www.w3.org/2000/svg"
   xmlns="http://www.w3.org/2000/svg"
   xmlns:xlink="http://www.w3.org/1999/xlink"
   id="svg2"
   version="1.1"
   viewBox="0 0 21 23"
   height="23px"
   width="21px">
  <metadata
     id="metadata25">
    <rdf:RDF>
      <cc:Work
         rdf:about="">
        <dc:format>image/svg+xml</dc:format>
        <dc:type
           rdf:resource="http://purl.org/dc/dcmitype/StillImage" />
        <dc:title>993CA79B-45CA-4908-A2BF-0B3FC79E229B</dc:title>
      </cc:Work>
    </rdf:RDF>
  </metadata>
  <!-- Generator: sketchtool 39.1 (31720) - http://www.bohemiancoding.com/sketch -->
  <title
     id="title4">993CA79B-45CA-4908-A2BF-0B3FC79E229B</title>
  <desc
     id="desc6">Created with sketchtool.</desc>
  <defs
     id="defs8">
    <rect
       height="18"
       width="21"
       y="5"
       x="0"
       id="path-1" />
    <mask
       fill="white"
       height="18"
       width="21"
       y="0"
       x="0"
       maskUnits="objectBoundingBox"
       maskContentUnits="userSpaceOnUse"
       id="mask-2">
      <use
         id="use12"
         xlink:href="#path-1" />
    </mask>
  </defs>
  <g
     fill-rule="evenodd"
     fill="none"
     stroke-width="1"
     stroke="none"
     id="Page-1">
    <g
       transform="translate(-1093.000000, -99.000000)"
       id="Looklive-Bnt-Update">
      <g
         transform="translate(1093.000000, 92.000000)"
         id="Group-5-Copy">
        <g
           transform="translate(0.000000, 7.000000)"
           id="ic_shopbag">
          <g
             id="Layer_1">
            <g
               id="Group">
              <path
                 id="rect20"
                 mask="mask-2"
                 d="m -0.5,4.5 0,0.5 0,18.5 22,0 0,-19 -22,0 z m 1,1 20,0 0,17 -20,0 0,-17 z"
                 style="color:#000000;font-style:normal;font-variant:normal;font-weight:normal;font-stretch:normal;font-size:medium;line-height:normal;font-family:sans-serif;text-indent:0;text-align:start;text-decoration:none;text-decoration-line:none;text-decoration-style:solid;text-decoration-color:#000000;letter-spacing:normal;word-spacing:normal;text-transform:none;direction:ltr;block-progression:tb;writing-mode:lr-tb;baseline-shift:baseline;text-anchor:start;white-space:normal;clip-rule:nonzero;display:inline;overflow:visible;visibility:visible;opacity:1;isolation:auto;mix-blend-mode:normal;color-interpolation:sRGB;color-interpolation-filters:linearRGB;solid-color:#000000;solid-opacity:1;fill:#000000;fill-opacity:1;fill-rule:nonzero;stroke:none;stroke-width:1;stroke-linecap:butt;stroke-linejoin:miter;stroke-miterlimit:4;stroke-dasharray:none;stroke-dashoffset:0;stroke-opacity:1;color-rendering:auto;image-rendering:auto;shape-rendering:auto;text-rendering:auto;enable-background:accumulate" />
              <path
                 fill="#000000"
                 id="Shape"
                 d="M6.94833338,5.1489723 C6.95806842,5.1489723 6.96787557,5.1489723 6.97692556,5.1483233 C7.29904731,5.13271118 7.54700245,4.85937281 7.53139033,4.53790007 C7.46829283,3.22983482 7.964131,2.19121393 8.9285853,1.61331294 C9.93396282,1.01067774 11.2863045,1.01067774 12.2917902,1.61331294 C13.2555234,2.19052887 13.7520826,3.22914976 13.6883361,4.53790007 C13.673373,4.85937281 13.9213282,5.13271118 14.2427649,5.1483233 C14.5596946,5.16069041 14.837576,4.91601634 14.8532242,4.59389459 C14.9371619,2.8615257 14.2219607,1.41031927 12.8911083,0.612442381 C11.5264716,-0.204255595 9.69390388,-0.204255595 8.32923116,0.613091384 C6.99776576,1.41028322 6.28256462,2.86148965 6.36650232,4.59389459 C6.3815015,4.90624524 6.63922774,5.1489723 6.94833338,5.1489723 L6.94833338,5.1489723 Z" />
            </g>
          </g>
        </g>
      </g>
    </g>
  </g>
</svg>
