<?xml version="1.0" encoding="UTF-8" standalone="no"?>
<svg width="75px" height="54px" viewBox="0 0 75 54" version="1.1" xmlns="http://www.w3.org/2000/svg" xmlns:xlink="http://www.w3.org/1999/xlink" xmlns:sketch="http://www.bohemiancoding.com/sketch/ns">
    <!-- Generator: Sketch 3.4.2 (15857) - http://www.bohemiancoding.com/sketch -->
    <title>uE061-unmute</title>
    <desc>Created with Sketch.</desc>
    <defs></defs>
    <g id="Page-1" stroke="none" stroke-width="1" fill="none" fill-rule="evenodd" sketch:type="MSPage">
        <g id="uE061-unmute" sketch:type="MSLayerGroup" fill="#000000">
            <path d="M38.479,0.432 C37.855,0.105 37.103,0.151 36.522,0.549 L19.087,12.56 L1.896,12.56 C0.848,12.56 0,13.409 0,14.455 L0,40.163 C0,41.211 0.848,42.059 1.896,42.059 L19.112,42.059 L36.56,53.477 C36.874,53.682 37.235,53.787 37.598,53.787 C37.908,53.787 38.217,53.712 38.499,53.559 C39.112,53.227 39.493,52.586 39.493,51.891 L39.493,2.109 C39.493,1.405 39.103,0.759 38.479,0.432 L38.479,0.432 Z" id="Shape" sketch:type="MSShapeGroup"></path>
            <path d="M53.6,12.73 C52.369,11.498 50.368,11.498 49.133,12.73 C47.901,13.963 47.901,15.964 49.133,17.197 C54.539,22.602 54.539,31.397 49.133,36.803 C47.901,38.035 47.901,40.035 49.133,41.27 C49.75,41.886 50.559,42.196 51.366,42.196 C52.173,42.196 52.982,41.887 53.599,41.27 C61.469,33.4 61.469,20.599 53.6,12.73 L53.6,12.73 Z" id="Shape" sketch:type="MSShapeGroup"></path>
            <path d="M63.661,1.881 C62.428,0.648 60.428,0.648 59.193,1.881 C57.961,3.113 57.961,5.113 59.193,6.347 C70.582,17.735 70.582,36.265 59.193,47.652 C57.961,48.885 57.961,50.885 59.193,52.119 C59.81,52.736 60.619,53.045 61.426,53.045 C62.233,53.045 63.043,52.736 63.659,52.119 C70.371,45.41 74.066,36.49 74.066,27 C74.066,17.511 70.371,8.589 63.661,1.881 L63.661,1.881 Z" id="Shape" sketch:type="MSShapeGroup"></path>
        </g>
    </g>
</svg>